{
  "@context": "https://doi.org/10.5063/schema/codemeta-2.0",
  "@type": "SoftwareSourceCode",
  "identifier": "mpmisc",
  "description": "Miscellaneous functions which I load in my '.Rprofile'.",
  "name": "mpmisc: Miscellaneous functions which I load in my '.Rprofile'",
  "codeRepository": "https://github.com/mpadge/mpmisc",
  "issueTracker": "https://github.com/mpadge/mpmisc/issues",
  "license": "https://spdx.org/licenses/MIT",
  "version": "0.1.1.010",
  "programmingLanguage": {
    "@type": "ComputerLanguage",
    "name": "R",
    "url": "https://r-project.org"
  },
  "runtimePlatform": "R version 4.3.0 (2023-04-21)",
  "author": [
    {
      "@type": "Person",
      "givenName": "Mark",
      "familyName": "Padgham",
      "email": "mark.padgham@email.com"
    }
  ],
  "maintainer": [
    {
      "@type": "Person",
      "givenName": "Mark",
      "familyName": "Padgham",
      "email": "mark.padgham@email.com"
    }
  ],
  "softwareSuggestions": [
    {
      "@type": "SoftwareApplication",
      "identifier": "curl",
      "name": "curl",
      "provider": {
        "@id": "https://cran.r-project.org",
        "@type": "Organization",
        "name": "Comprehensive R Archive Network (CRAN)",
        "url": "https://cran.r-project.org"
      },
      "sameAs": "https://CRAN.R-project.org/package=curl"
    },
    {
      "@type": "SoftwareApplication",
      "identifier": "httr",
      "name": "httr",
      "provider": {
        "@id": "https://cran.r-project.org",
        "@type": "Organization",
        "name": "Comprehensive R Archive Network (CRAN)",
        "url": "https://cran.r-project.org"
      },
      "sameAs": "https://CRAN.R-project.org/package=httr"
    },
    {
      "@type": "SoftwareApplication",
      "identifier": "pkgbuild",
      "name": "pkgbuild",
      "provider": {
        "@id": "https://cran.r-project.org",
        "@type": "Organization",
        "name": "Comprehensive R Archive Network (CRAN)",
        "url": "https://cran.r-project.org"
      },
      "sameAs": "https://CRAN.R-project.org/package=pkgbuild"
    },
    {
      "@type": "SoftwareApplication",
      "identifier": "precommit",
      "name": "precommit",
      "provider": {
        "@id": "https://cran.r-project.org",
        "@type": "Organization",
        "name": "Comprehensive R Archive Network (CRAN)",
        "url": "https://cran.r-project.org"
      },
      "sameAs": "https://CRAN.R-project.org/package=precommit"
    }
  ],
  "softwareRequirements": {
    "1": {
      "@type": "SoftwareApplication",
      "identifier": "gert",
      "name": "gert",
      "provider": {
        "@id": "https://cran.r-project.org",
        "@type": "Organization",
        "name": "Comprehensive R Archive Network (CRAN)",
        "url": "https://cran.r-project.org"
      },
      "sameAs": "https://CRAN.R-project.org/package=gert"
    },
    "2": {
      "@type": "SoftwareApplication",
      "identifier": "ghql",
      "name": "ghql",
      "provider": {
        "@id": "https://cran.r-project.org",
        "@type": "Organization",
        "name": "Comprehensive R Archive Network (CRAN)",
        "url": "https://cran.r-project.org"
      },
      "sameAs": "https://CRAN.R-project.org/package=ghql"
    },
    "3": {
      "@type": "SoftwareApplication",
      "identifier": "here",
      "name": "here",
      "provider": {
        "@id": "https://cran.r-project.org",
        "@type": "Organization",
        "name": "Comprehensive R Archive Network (CRAN)",
        "url": "https://cran.r-project.org"
      },
      "sameAs": "https://CRAN.R-project.org/package=here"
    },
    "4": {
      "@type": "SoftwareApplication",
      "identifier": "jsonlite",
      "name": "jsonlite",
      "provider": {
        "@id": "https://cran.r-project.org",
        "@type": "Organization",
        "name": "Comprehensive R Archive Network (CRAN)",
        "url": "https://cran.r-project.org"
      },
      "sameAs": "https://CRAN.R-project.org/package=jsonlite"
    },
    "5": {
      "@type": "SoftwareApplication",
      "identifier": "lubridate",
      "name": "lubridate",
      "provider": {
        "@id": "https://cran.r-project.org",
        "@type": "Organization",
        "name": "Comprehensive R Archive Network (CRAN)",
        "url": "https://cran.r-project.org"
      },
      "sameAs": "https://CRAN.R-project.org/package=lubridate"
    },
    "6": {
      "@type": "SoftwareApplication",
      "identifier": "rappdirs",
      "name": "rappdirs",
      "provider": {
        "@id": "https://cran.r-project.org",
        "@type": "Organization",
        "name": "Comprehensive R Archive Network (CRAN)",
        "url": "https://cran.r-project.org"
      },
      "sameAs": "https://CRAN.R-project.org/package=rappdirs"
    },
    "SystemRequirements": {}
  },
  "fileSize": "42.319KB",
  "readme": "https://github.com/mpadge/mpmisc/blob/main/README.md",
  "contIntegration": "https://github.com/mpadge/mpmisc/actions"
}
